1|"Bourgeat"|"Aleksandre"|"Hastegan"|"hastegan@mail.com"|"688b1b828c4a6738f70367d51162aa4c703a944d7344fdbb1839ec0a54125e684a7b4f0358c7205d79e68fb7fa735ec60496417f510a3dcf660b6731098f035b"
2|"Jonhson"|"Eddie"|"grackly"|"EddieCJohnson@inbound.plus"|"91f2cdd8693d37cf6b60b8966a5b154decba1599f4c71c645b229941d0cf36a8088eb52e6eeb7b30d4f872060df7689522729f5f8d14ca663e4a20f372d1922b"
3|"Ortiz"|"Richard"|"jehing"|"richard@inboud.pus"|"34860249afb2ad3ed15ed060ca7229c2df80156a3d64bd5b72b6d633115c952074de8439fa4b5ef84362f24cae0bc5799231a11c4f4af5e4e67e8ac2143852e3"
4|"Maldonado"|"Christopher"|"giathe"|"chris@mail.com"|"148433608b666a04f7b9659d158ce0223013d44f6560403cec78d4e8f33970f7c33496cd84d12c9530c7c7ac4be52287aa02b8901d91781683862990a857788a"
5|"Robey"|"Alex"|"mandist"|"mandist@mail.com"|"667e4ad7fe315c78cc92e3e80bdd31a7df354a1b34823c74796aef88b2a6bb9d759ab9b1f9f965d3263bc1a95983028074fa9f7753546cecdd104988e53a85ba"
6|"Kleist"|"John"|"Fles"|"john@mail.com"|"a51b95da887815b0bc32dc44f4354ba22ceace22f5f156f23b0d40c0a1eb792a8a98030d71b7562f7f289ba4157a9c58a6ec22c05a5604db5927a686360fca5e"
7|"Kleist"|"John"|"Fless"|"johnn@mail.com"|"d97887cbaa130018995163b36ddd8b012cde65f020f4324e9babf96aa7f9b162876d7ce128447ca77e05d22974cefce0141fef199c973137dc699f966fd2dba4"
8|"Duquette"|"Ryan"|"arlither"|"ryan@mail.com"|"64b0c7727b60c737385881179b60b86fee4d45d965b2048d84c593571a8d2e864e6962b89a655bc419c5f4538f15054100114e6e30f7a48c4fc0d4f4a49a4dc3"
9|"Marion"|"Thomas"|"William"|"will@do.it"|"98f84c74ced42d65baed499db45159d358649aa8e7cf46ed644b1ff7355487305aeb014fac228534bee7147b15d1ebfecaacc1edebf1c5ce4d91cbdb43e709ea"
